…
This is a very useful one! The output is a matrix where we now the
number of SNPs (better said as observations because IDK the reason
behind the duplicates detected earlier yet) per chromosome per
phenotype.

Let’s take a closer look at Parkinson’s Disease

``` r
parkinson <- sac.2 %>% select("chr", "Parkinson's disease")
parkinson
```

    ## # A tibble: 23 × 2
    ##    chr   `Parkinson's disease`
    ##    <fct>                 <int>
    ##  1 1                         8
    ##  2 10                        5
    ##  3 11                        7
    ##  4 12                        4
    ##  5 13                        3
    ##  6 14                        5
    ##  7 15                        1
    ##  8 16                        4
    ##  9 17                        2
    ## 10 18                        5
    ## # … with 13 more rows
…
